[{
   "ProductId": 1,
   "ProductTitle":"First Promotion",
   "imageUrl": "assets/samsung2.jpg",
   "ProductType":"Mobile",
   "ScreenSize": "5.8 inches",
   "OperatingSystem": "Android",
   "StorageCapacity": "64 GB Storage",
   "Features": "4G LTE, Quad‑band, Water Resistant",
   "Description":"Slim in construction for easy handling, this bold smartphone delivers professional quality shots through Pro Mode manual adjustments. The dual aperture lens adjusts to the light, so images show up in crystal clarity on the 5.8-inch screen, while Iris Scanner and Face Recognition provide instant access."
},

{
   "ProductId": 2,
   "ProductTitle":"Second Promotion",
    "imageUrl":"assets/hp.jpeg",
    "ProductType":"Mobile",
    "ScreenSize": "5.96 inches",
    "OperatingSystem": "Android",
    "StorageCapacity": "64 GB Storage",
    "Features": "4G LTE, Quad‑band, Water Resistant",
    "Description":" Experience the power and productivity of a PC, the versatility of a tablet, and premium smartphone capabilities of your hand with the HP Elite x3, HP's first built for business 3-in-1 device. It's designed to deliver simple and seamless access to your people, apps, and data."
},

{
   "ProductId": 3,
    "ProductTitle":"Third Promotion",
    "imageUrl":"assets/Book.jpg",
    "ProductType":"Book",
    "Author" : "Agatha Christie",
    "Language"	: "English",
    "BookType" : "Crime novel",
    "Description":"In The New York Times Book Review of 4 March 1934, Isaac Anderson wrote, \"The great Belgian detective's guesses are more than shrewd; they are positively miraculous. Although both the murder plot and the solution verge upon the impossible, Agatha Christie has contrived to make them appear quite convincing for the time being, and what more than that can a mystery addict desire?\" "
},

{
   "ProductId": 4,
   "ProductTitle":"Fourth Promotion",
    "imageUrl":"assets/bestbuy.png",
    "ProductType":"Organization",
    "Founder" :	"Richard M. Schulze",
    "Industry"	: "Retail8",
    "Products"	: "Consumer electronics",
    "Headquarters"	: "Richfield, Minnesota, United States", 
    "Description":"Best Buy is an American multinational consumer electronics corporation headquartered in Richfield, Minnesota, a Minneapolis suburb. Internationally, it also operates in Canada and Mexico. It was formerly operational in China until February 2011 (when the faction was merged with Five Star) and in Europe until 2012.[3] The company was founded by Richard M. Schulze and James Wheeler in 1966[4] as an audio specialty store named Sound of Music. In 1983, it was renamed and rebranded with more emphasis placed on consumer electronics."
},
{
   "ProductId": 5, 
   "ProductTitle":"Fifth Promotion",
   "Description":"Fifth promotion"
},
{
    "ProductId": 6,
    "ProductType":"UserInfo",
    "ProductTitle":"User Details",
     "UserId": "User ID",
     "UserName":"User Name"
}

]